%YAML 1.1
%TAG !u! tag:unity3d.com,2011:
--- !u!114 &11400000
MonoBehaviour:
  m_ObjectHideFlags: 0
  m_CorrespondingSourceObject: {fileID: 0}
  m_PrefabInstance: {fileID: 0}
  m_PrefabAsset: {fileID: 0}
  m_GameObject: {fileID: 0}
  m_Enabled: 1
  m_EditorHideFlags: 0
  m_Script: {fileID: 11500000, guid: 448dd70badfb1ff47bdbd621ad7abbfb, type: 3}
  m_Name: GizmoObjectsType
  m_EditorClassIdentifier: 
  types:
  - name: EnemySpawnGroup
    gizmoSize: {x: 1, y: 1, z: 1}
    gizmoColor: {r: 0.9528302, g: 0.26517445, b: 0.26517445, a: 1}
    gizmoType: 1
    spawnBehaviour: {fileID: 8922103549575433239, guid: 54787d91beb265844b1deb99fbaf487d,
      type: 3}
  - name: PlayerSpawnGroup
    gizmoSize: {x: 0, y: 0, z: 0}
    gizmoColor: {r: 0.30411178, g: 0.5860519, b: 0.9622642, a: 1}
    gizmoType: 1
    spawnBehaviour: {fileID: 8922103549575433239, guid: cf63721e2ae6982488ccc80d564b0cfb,
      type: 3}
  - name: ObstacleSpawnGroup
    gizmoSize: {x: 1.5, y: 1.5, z: 1.5}
    gizmoColor: {r: 0.4293181, g: 0.9150943, b: 0.30647027, a: 1}
    gizmoType: 0
    spawnBehaviour: {fileID: 8922103549575433239, guid: c530eb3173537364a83a7b816070d040,
      type: 3}
  - name: PickupSpawnGroup
    gizmoSize: {x: 1, y: 1, z: 1}
    gizmoColor: {r: 1, g: 0.86463225, b: 0, a: 1}
    gizmoType: 2
    spawnBehaviour: {fileID: 8922103549575433239, guid: c0ab65c2026fd78449994fe2037f7b31,
      type: 3}
