%YAML 1.1
%TAG !u! tag:unity3d.com,2011:
--- !u!1045 &1
EditorBuildSettings:
  m_ObjectHideFlags: 0
  serializedVersion: 2
  m_Scenes:
  - enabled: 1
    path: Assets/[Scenes]/EditorToolsExample.unity
    guid: 404741e091c8f1b408752eeb71a649b2
  m_configObjects: {}
